%YAML 1.1
%TAG !u! tag:unity3d.com,2011:
--- !u!74 &7400000
AnimationClip:
  m_ObjectHideFlags: 0
  m_PrefabParentObject: {fileID: 0}
  m_PrefabInternal: {fileID: 0}
  m_Name: Throw
  serializedVersion: 6
  m_Legacy: 0
  m_Compressed: 0
  m_UseHighQualityCurve: 1
  m_RotationCurves:
  - curve:
      serializedVersion: 2
      m_Curve:
      - time: 0
        value: {x: 0, y: 0, z: .00714293774, w: .999974489}
        inSlope: {x: 0, y: 0, z: .223877937, w: -.00201702118}
        outSlope: {x: 0, y: 0, z: .223877937, w: -.00201702118}
        tangentMode: 0
      - time: .0166666675
        value: {x: 0, y: 0, z: .0108742369, w: .999940872}
        inSlope: {x: 0, y: 0, z: .237474889, w: -.00263571739}
        outSlope: {x: 0, y: 0, z: .237474889, w: -.00263571739}
        tangentMode: 0
      - time: .0333333351
        value: {x: 0, y: 0, z: .015058768, w: .999886632}
        inSlope: {x: 0, y: 0, z: .263153076, w: -.0040161605}
        outSlope: {x: 0, y: 0, z: .263153076, w: -.0040161605}
        tangentMode: 0
      - time: .0500000045
        value: {x: 0, y: 0, z: .0196460076, w: .999807}
        inSlope: {x: 0, y: 0, z: .285798997, w: -.00566661358}
        outSlope: {x: 0, y: 0, z: .285798997, w: -.00566661358}
        tangentMode: 0
      - time: .0666666701
        value: {x: 0, y: 0, z: .0245854016, w: .999697745}
        inSlope: {x: 0, y: 0, z: .305410296, w: -.0075566778}
        outSlope: {x: 0, y: 0, z: .305410296, w: -.0075566778}
        tangentMode: 0
      - time: .0833333358
        value: {x: 0, y: 0, z: .0298263505, w: .999555111}
        inSlope: {x: 0, y: 0, z: .321984828, w: -.00964880083}
        outSlope: {x: 0, y: 0, z: .321984828, w: -.00964880083}
        tangentMode: 0
      - time: .100000001
        value: {x: 0, y: 0, z: .0353182293, w: .999376118}
        inSlope: {x: 0, y: 0, z: .33552134, w: -.0118911276}
        outSlope: {x: 0, y: 0, z: .33552134, w: -.0118911276}
        tangentMode: 0
      - time: .116666667
        value: {x: 0, y: 0, z: .0410103947, w: .99915874}
        inSlope: {x: 0, y: 0, z: .346019447, w: -.0142282229}
        outSlope: {x: 0, y: 0, z: .346019447, w: -.0142282229}
        tangentMode: 0
      - time: .13333334
        value: {x: 0, y: 0, z: .0468522124, w: .998901844}
        inSlope: {x: 0, y: 0, z: .353479683, w: -.0165975075}
        outSlope: {x: 0, y: 0, z: .353479683, w: -.0165975075}
        tangentMode: 0
      - time: .150000006
        value: {x: 0, y: 0, z: .052793052, w: .99860549}
        inSlope: {x: 0, y: 0, z: .357903361, w: -.0189310331}
        outSlope: {x: 0, y: 0, z: .357903361, w: -.0189310331}
        tangentMode: 0
      - time: .166666672
        value: {x: 0, y: 0, z: .0587823242, w: .99827081}
        inSlope: {x: 0, y: 0, z: .359292328, w: -.0211572666}
        outSlope: {x: 0, y: 0, z: .359292328, w: -.0211572666}
        tangentMode: 0
      - time: .183333337
        value: {x: 0, y: 0, z: .0647694618, w: .997900248}
        inSlope: {x: 0, y: 0, z: .357651353, w: -.0232046861}
        outSlope: {x: 0, y: 0, z: .357651353, w: -.0232046861}
        tangentMode: 0
      - time: .200000003
        value: {x: 0, y: 0, z: .0707040355, w: .99749732}
        inSlope: {x: 0, y: 0, z: .352985203, w: -.0250017662}
        outSlope: {x: 0, y: 0, z: .352985203, w: -.0250017662}
        tangentMode: 0
      - time: .216666669
        value: {x: 0, y: 0, z: .0765356347, w: .997066855}
        inSlope: {x: 0, y: 0, z: .345297992, w: -.0264787693}
        outSlope: {x: 0, y: 0, z: .345297992, w: -.0264787693}
        tangentMode: 0
      - time: .233333334
        value: {x: 0, y: 0, z: .082213968, w: .996614695}
        inSlope: {x: 0, y: 0, z: .334597766, w: -.0275677461}
        outSlope: {x: 0, y: 0, z: .334597766, w: -.0275677461}
        tangentMode: 0
      - time: .25
        value: {x: 0, y: 0, z: .0876888931, w: .996147931}
        inSlope: {x: 0, y: 0, z: .320891976, w: -.0282060988}
        outSlope: {x: 0, y: 0, z: .320891976, w: -.0282060988}
        tangentMode: 0
      - time: .266666681
        value: {x: 0, y: 0, z: .0929103717, w: .995674491}
        inSlope: {x: 0, y: 0, z: .304186821, w: -.0283384081}
        outSlope: {x: 0, y: 0, z: .304186821, w: -.0283384081}
        tangentMode: 0
      - time: .283333361
        value: {x: 0, y: 0, z: .0978284627, w: .995203316}
        inSlope: {x: 0, y: 0, z: .284488916, w: -.0279146209}
        outSlope: {x: 0, y: 0, z: .284488916, w: -.0279146209}
        tangentMode: 0
      - time: .300000042
        value: {x: 0, y: 0, z: .102393344, w: .994744003}
        inSlope: {x: 0, y: 0, z: .261805713, w: -.0268953815}
        outSlope: {x: 0, y: 0, z: .261805713, w: -.0268953815}
        tangentMode: 0
      - time: .316666722
        value: {x: 0, y: 0, z: .106555328, w: .994306803}
        inSlope: {x: 0, y: 0, z: .236143276, w: -.0252520815}
        outSlope: {x: 0, y: 0, z: .236143276, w: -.0252520815}
        tangentMode: 0
      - time: .333333403
        value: {x: 0, y: 0, z: .110264793, w: .993902266}
        inSlope: {x: 0, y: 0, z: .207505137, w: -.0229686312}
        outSlope: {x: 0, y: 0, z: .207505137, w: -.0229686312}
        tangentMode: 0
      - time: .350000083
        value: {x: 0, y: 0, z: .113472171, w: .993541181}
        inSlope: {x: 0, y: 0, z: .175894201, w: -.0200396609}
        outSlope: {x: 0, y: 0, z: .175894201, w: -.0200396609}
        tangentMode: 0
      - time: .366666764
        value: {x: 0, y: 0, z: .116127938, w: .993234277}
        inSlope: {x: 0, y: 0, z: .141311169, w: -.0164794791}
        outSlope: {x: 0, y: 0, z: .141311169, w: -.0164794791}
        tangentMode: 0
      - time: .383333445
        value: {x: 0, y: 0, z: .118182547, w: .992991865}
        inSlope: {x: 0, y: 0, z: .103754684, w: -.0123149054}
        outSlope: {x: 0, y: 0, z: .103754684, w: -.0123149054}
        tangentMode: 0
      - time: .400000125
        value: {x: 0, y: 0, z: .11958643, w: .99282378}
        inSlope: {x: 0, y: 0, z: .0632198378, w: -.00759243313}
        outSlope: {x: 0, y: 0, z: .0632198378, w: -.00759243313}
        tangentMode: 0
      - time: .416666806
        value: {x: 0, y: 0, z: .120289877, w: .992738783}
        inSlope: {x: 0, y: 0, z: .0196987987, w: -.00237822346}
        outSlope: {x: 0, y: 0, z: .0196987987, w: -.00237822346}
        tangentMode: 0
      - time: .433333486
        value: {x: 0, y: 0, z: .120243058, w: .992744505}
        inSlope: {x: 0, y: 0, z: -.026817821, w: .00323831756}
        outSlope: {x: 0, y: 0, z: -.026817821, w: .00323831756}
        tangentMode: 0
      - time: .450000167
        value: {x: 0, y: 0, z: .119395949, w: .992846727}
        inSlope: {x: 0, y: 0, z: -.0763441026, w: .00914632529}
        outSlope: {x: 0, y: 0, z: -.0763441026, w: .00914632529}
        tangentMode: 0
      - time: .466666847
        value: {x: 0, y: 0, z: .117698252, w: .993049383}
        inSlope: {x: 0, y: 0, z: -.128895909, w: .0152170528}
        outSlope: {x: 0, y: 0, z: -.128895909, w: .0152170528}
        tangentMode: 0
      - time: .483333528
        value: {x: 0, y: 0, z: .115099415, w: .993353963}
        inSlope: {x: 0, y: 0, z: -.184489757, w: .0212878026}
        outSlope: {x: 0, y: 0, z: -.184489757, w: .0212878026}
        tangentMode: 0
      - time: .500000179
        value: {x: 0, y: 0, z: .111548595, w: .993758976}
        inSlope: {x: 0, y: 0, z: -.275180161, w: .0305986684}
        outSlope: {x: 0, y: 0, z: -.275180161, w: .0305986684}
        tangentMode: 0
      - time: .51666683
        value: {x: 0, y: 0, z: .105926752, w: .994373918}
        inSlope: {x: 0, y: 0, z: -.420969099, w: .0442493372}
        outSlope: {x: 0, y: 0, z: -.420969099, w: .0442493372}
        tangentMode: 0
      - time: .53333348
        value: {x: 0, y: 0, z: .0975163057, w: .995233953}
        inSlope: {x: 0, y: 0, z: -.571751177, w: .0553769395}
        outSlope: {x: 0, y: 0, z: -.571751177, w: .0553769395}
        tangentMode: 0
      - time: .550000131
        value: {x: 0, y: 0, z: .0868683979, w: .996219814}
        inSlope: {x: 0, y: 0, z: -.689410806, w: .0595307909}
        outSlope: {x: 0, y: 0, z: -.689410806, w: .0595307909}
        tangentMode: 0
      - time: .566666782
        value: {x: 0, y: 0, z: .0745359659, w: .997218311}
        inSlope: {x: 0, y: 0, z: -.773812175, w: .0574011132}
        outSlope: {x: 0, y: 0, z: -.773812175, w: .0574011132}
        tangentMode: 0
      - time: .583333433
        value: {x: 0, y: 0, z: .0610746816, w: .998133183}
        inSlope: {x: 0, y: 0, z: -.824786663, w: .0502360351}
        outSlope: {x: 0, y: 0, z: -.824786663, w: .0502360351}
        tangentMode: 0
      - time: .600000083
        value: {x: 0, y: 0, z: .0470431037, w: .998892844}
        inSlope: {x: 0, y: 0, z: -.842173934, w: .039662756}
        outSlope: {x: 0, y: 0, z: -.842173934, w: .039662756}
        tangentMode: 0
      - time: .616666734
        value: {x: 0, y: 0, z: .0330022424, w: .999455273}
        inSlope: {x: 0, y: 0, z: -.825856924, w: .0275016092}
        outSlope: {x: 0, y: 0, z: -.825856924, w: .0275016092}
        tangentMode: 0
      - time: .633333385
        value: {x: 0, y: 0, z: .0195145663, w: .999809563}
        inSlope: {x: 0, y: 0, z: -.775781155, w: .0155765144}
        outSlope: {x: 0, y: 0, z: -.775781155, w: .0155765144}
        tangentMode: 0
      - time: .649999976
        value: {x: 0, y: 0, z: .00714293774, w: .999974489}
        inSlope: {x: 0, y: 0, z: -.742301047, w: .00989560783}
        outSlope: {x: 0, y: 0, z: -.742301047, w: .00989560783}
        tangentMode: 0
      m_PreInfinity: 2
      m_PostInfinity: 2
    path: Head
  - curve:
      serializedVersion: 2
      m_Curve:
      - time: 0
        value: {x: 0, y: 0, z: .455238402, w: -.890369594}
        inSlope: {x: 0, y: 0, z: -4.691432, w: -2.14945078}
        outSlope: {x: 0, y: 0, z: -4.691432, w: -2.14945078}
        tangentMode: 0
      - time: .0166666675
        value: {x: 0, y: 0, z: .377047867, w: -.926193774}
        inSlope: {x: 0, y: 0, z: -4.9786973, w: -2.00623155}
        outSlope: {x: 0, y: 0, z: -4.9786973, w: -2.00623155}
        tangentMode: 0
      - time: .0333333351
        value: {x: 0, y: 0, z: .289281815, w: -.957243979}
        inSlope: {x: 0, y: 0, z: -5.49776363, w: -1.64548326}
        outSlope: {x: 0, y: 0, z: -5.49776363, w: -1.64548326}
        tangentMode: 0
      - time: .0500000045
        value: {x: 0, y: 0, z: .193789065, w: -.98104322}
        inSlope: {x: 0, y: 0, z: -5.89184475, w: -1.15297961}
        outSlope: {x: 0, y: 0, z: -5.89184475, w: -1.15297961}
        tangentMode: 0
      - time: .0666666701
        value: {x: 0, y: 0, z: .0928869769, w: -.995676637}
        inSlope: {x: 0, y: 0, z: -6.13632774, w: -.566968977}
        outSlope: {x: 0, y: 0, z: -6.13632774, w: -.566968977}
        tangentMode: 0
      - time: .0833333358
        value: {x: 0, y: 0, z: -.0107551804, w: -.999942183}
        inSlope: {x: 0, y: 0, z: -6.21505785, w: .0668478012}
        outSlope: {x: 0, y: 0, z: -6.21505785, w: .0668478012}
        tangentMode: 0
      - time: .100000001
        value: {x: 0, y: 0, z: -.11428161, w: -.993448377}
        inSlope: {x: 0, y: 0, z: -6.12272739, w: .698828161}
        outSlope: {x: 0, y: 0, z: -6.12272739, w: .698828161}
        tangentMode: 0
      - time: .116666667
        value: {x: 0, y: 0, z: -.214846075, w: -.976647913}
        inSlope: {x: 0, y: 0, z: -5.86568832, w: 1.27944386}
        outSlope: {x: 0, y: 0, z: -5.86568832, w: 1.27944386}
        tangentMode: 0
      - time: .13333334
        value: {x: 0, y: 0, z: -.309804589, w: -.95080024}
        inSlope: {x: 0, y: 0, z: -5.46109772, w: 1.76335728}
        outSlope: {x: 0, y: 0, z: -5.46109772, w: 1.76335728}
        tangentMode: 0
      - time: .150000006
        value: {x: 0, y: 0, z: -.396882683, w: -.917869329}
        inSlope: {x: 0, y: 0, z: -4.93439293, w: 2.11285663}
        outSlope: {x: 0, y: 0, z: -4.93439293, w: 2.11285663}
        tangentMode: 0
      - time: .166666672
        value: {x: 0, y: 0, z: -.474284351, w: -.88037169}
        inSlope: {x: 0, y: 0, z: -4.31561089, w: 2.30031633}
        outSlope: {x: 0, y: 0, z: -4.31561089, w: 2.30031633}
        tangentMode: 0
      - time: .183333337
        value: {x: 0, y: 0, z: -.540736377, w: -.841192126}
        inSlope: {x: 0, y: 0, z: -3.63501406, w: 2.30941248}
        outSlope: {x: 0, y: 0, z: -3.63501406, w: 2.30941248}
        tangentMode: 0
      - time: .200000003
        value: {x: 0, y: 0, z: -.595451474, w: -.803391278}
        inSlope: {x: 0, y: 0, z: -2.91846538, w: 2.13513517}
        outSlope: {x: 0, y: 0, z: -2.91846538, w: 2.13513517}
        tangentMode: 0
      - time: .216666669
        value: {x: 0, y: 0, z: -.638018548, w: -.770020962}
        inSlope: {x: 0, y: 0, z: -2.18325043, w: 1.78300214}
        outSlope: {x: 0, y: 0, z: -2.18325043, w: 1.78300214}
        tangentMode: 0
      - time: .233333334
        value: {x: 0, y: 0, z: -.66822648, w: -.743957877}
        inSlope: {x: 0, y: 0, z: -1.43455815, w: 1.26797688}
        outSlope: {x: 0, y: 0, z: -1.43455815, w: 1.26797688}
        tangentMode: 0
      - time: .25
        value: {x: 0, y: 0, z: -.68583715, w: -.72775507}
        inSlope: {x: 0, y: 0, z: -.744005322, w: .691376805}
        outSlope: {x: 0, y: 0, z: -.744005322, w: .691376805}
        tangentMode: 0
      - time: .266666681
        value: {x: 0, y: 0, z: -.693026662, w: -.72091198}
        inSlope: {x: 0, y: 0, z: -.205498174, w: .195504278}
        outSlope: {x: 0, y: 0, z: -.205498174, w: .195504278}
        tangentMode: 0
      - time: .283333361
        value: {x: 0, y: 0, z: -.692687094, w: -.721238256}
        inSlope: {x: 0, y: 0, z: .231411859, w: -.220101878}
        outSlope: {x: 0, y: 0, z: .231411859, w: -.220101878}
        tangentMode: 0
      - time: .300000042
        value: {x: 0, y: 0, z: -.685312927, w: -.728248715}
        inSlope: {x: 0, y: 0, z: .64412123, w: -.600696325}
        outSlope: {x: 0, y: 0, z: .64412123, w: -.600696325}
        tangentMode: 0
      - time: .316666722
        value: {x: 0, y: 0, z: -.671216369, w: -.741261482}
        inSlope: {x: 0, y: 0, z: 1.04201412, w: -.935693145}
        outSlope: {x: 0, y: 0, z: 1.04201412, w: -.935693145}
        tangentMode: 0
      - time: .333333403
        value: {x: 0, y: 0, z: -.650579095, w: -.759438515}
        inSlope: {x: 0, y: 0, z: 1.43128455, w: -1.21669006}
        outSlope: {x: 0, y: 0, z: 1.43128455, w: -1.21669006}
        tangentMode: 0
      - time: .350000083
        value: {x: 0, y: 0, z: -.623506844, w: -.781817853}
        inSlope: {x: 0, y: 0, z: 1.81484365, w: -1.43709242}
        outSlope: {x: 0, y: 0, z: 1.81484365, w: -1.43709242}
        tangentMode: 0
      - time: .366666764
        value: {x: 0, y: 0, z: -.590084255, w: -.807341635}
        inSlope: {x: 0, y: 0, z: 2.19259143, w: -1.5920918}
        outSlope: {x: 0, y: 0, z: 2.19259143, w: -1.5920918}
        tangentMode: 0
      - time: .383333445
        value: {x: 0, y: 0, z: -.550420403, w: -.834887624}
        inSlope: {x: 0, y: 0, z: 2.56169176, w: -1.67868948}
        outSlope: {x: 0, y: 0, z: 2.56169176, w: -1.67868948}
        tangentMode: 0
      - time: .400000125
        value: {x: 0, y: 0, z: -.504694462, w: -.863297999}
        inSlope: {x: 0, y: 0, z: 2.91702676, w: -1.69584846}
        outSlope: {x: 0, y: 0, z: 2.91702676, w: -1.69584846}
        tangentMode: 0
      - time: .416666806
        value: {x: 0, y: 0, z: -.453186095, w: -.891415954}
        inSlope: {x: 0, y: 0, z: 3.25176358, w: -1.64466119}
        outSlope: {x: 0, y: 0, z: 3.25176358, w: -1.64466119}
        tangentMode: 0
      - time: .433333486
        value: {x: 0, y: 0, z: -.396302253, w: -.918120086}
        inSlope: {x: 0, y: 0, z: 3.55788565, w: -1.52843595}
        outSlope: {x: 0, y: 0, z: 3.55788565, w: -1.52843595}
        tangentMode: 0
      - time: .450000167
        value: {x: 0, y: 0, z: -.334589809, w: -.942363858}
        inSlope: {x: 0, y: 0, z: 3.82695746, w: -1.3528049}
        outSlope: {x: 0, y: 0, z: 3.82695746, w: -1.3528049}
        tangentMode: 0
      - time: .466666847
        value: {x: 0, y: 0, z: -.268736899, w: -.963213623}
        inSlope: {x: 0, y: 0, z: 4.05074739, w: -1.12562203}
        outSlope: {x: 0, y: 0, z: 4.05074739, w: -1.12562203}
        tangentMode: 0
      - time: .483333528
        value: {x: 0, y: 0, z: -.199564785, w: -.979884624}
        inSlope: {x: 0, y: 0, z: 4.22186947, w: -.856785059}
        outSlope: {x: 0, y: 0, z: 4.22186947, w: -.856785059}
        tangentMode: 0
      - time: .500000179
        value: {x: 0, y: 0, z: -.128007933, w: -.991773129}
        inSlope: {x: 0, y: 0, z: 4.33438206, w: -.55791074}
        outSlope: {x: 0, y: 0, z: 4.33438206, w: -.55791074}
        tangentMode: 0
      - time: .51666683
        value: {x: 0, y: 0, z: -.0550855063, w: -.998481631}
        inSlope: {x: 0, y: 0, z: 4.38421154, w: -.241874695}
        outSlope: {x: 0, y: 0, z: 4.38421154, w: -.241874695}
        tangentMode: 0
      - time: .53333348
        value: {x: 0, y: 0, z: .0181323215, w: -.99983561}
        inSlope: {x: 0, y: 0, z: 4.36945724, w: .0777269155}
        outSlope: {x: 0, y: 0, z: 4.36945724, w: .0777269155}
        tangentMode: 0
      - time: .550000131
        value: {x: 0, y: 0, z: .0905629322, w: -.995890737}
        inSlope: {x: 0, y: 0, z: 4.29050159, w: .387164742}
        outSlope: {x: 0, y: 0, z: 4.29050159, w: .387164742}
        tangentMode: 0
      - time: .566666782
        value: {x: 0, y: 0, z: .161148906, w: -.986930132}
        inSlope: {x: 0, y: 0, z: 4.14998007, w: .673192203}
        outSlope: {x: 0, y: 0, z: 4.14998007, w: .673192203}
        tangentMode: 0
      - time: .583333433
        value: {x: 0, y: 0, z: .22889547, w: -.973451018}
        inSlope: {x: 0, y: 0, z: 3.95253921, w: .923612356}
        outSlope: {x: 0, y: 0, z: 3.95253921, w: .923612356}
        tangentMode: 0
      - time: .600000083
        value: {x: 0, y: 0, z: .292900085, w: -.956143081}
        inSlope: {x: 0, y: 0, z: 3.70441341, w: 1.1277734}
        outSlope: {x: 0, y: 0, z: 3.70441341, w: 1.1277734}
        tangentMode: 0
      - time: .616666734
        value: {x: 0, y: 0, z: .352375805, w: -.935858607}
        inSlope: {x: 0, y: 0, z: 3.41294789, w: 1.27697229}
        outSlope: {x: 0, y: 0, z: 3.41294789, w: 1.27697229}
        tangentMode: 0
      - time: .633333385
        value: {x: 0, y: 0, z: .406664908, w: -.913577378}
        inSlope: {x: 0, y: 0, z: 3.085886, w: 1.36467421}
        outSlope: {x: 0, y: 0, z: 3.085886, w: 1.36467421}
        tangentMode: 0
      - time: .649999976
        value: {x: 0, y: 0, z: .455238402, w: -.890369594}
        inSlope: {x: 0, y: 0, z: 2.91442275, w: 1.39247334}
        outSlope: {x: 0, y: 0, z: 2.91442275, w: 1.39247334}
        tangentMode: 0
      m_PreInfinity: 2
      m_PostInfinity: 2
    path: Arm
  m_CompressedRotationCurves: []
  m_PositionCurves:
  - curve:
      serializedVersion: 2
      m_Curve:
      - time: 0
        value: {x: -.023, y: -.513000011, z: 0}
        inSlope: {x: .19600001, y: .472000003, z: 0}
        outSlope: {x: .19600001, y: .472000003, z: 0}
        tangentMode: 0
      - time: .25
        value: {x: .0260000005, y: -.395000011, z: 0}
        inSlope: {x: .03675, y: .0884999931, z: 0}
        outSlope: {x: .03675, y: .0884999931, z: 0}
        tangentMode: 0
      - time: .649999976
        value: {x: -.023, y: -.513000011, z: 0}
        inSlope: {x: -.12250001, y: -.295000017, z: 0}
        outSlope: {x: -.12250001, y: -.295000017, z: 0}
        tangentMode: 0
      m_PreInfinity: 2
      m_PostInfinity: 2
    path: Arm
  - curve:
      serializedVersion: 2
      m_Curve:
      - time: 0
        value: {x: 0, y: 0, z: 0}
        inSlope: {x: -.0199999996, y: -.151999995, z: 0}
        outSlope: {x: -.0199999996, y: -.151999995, z: 0}
        tangentMode: 0
      - time: .5
        value: {x: -.00999999978, y: -.0759999976, z: 0}
        inSlope: {x: .023333339, y: .177333355, z: 0}
        outSlope: {x: .023333339, y: .177333355, z: 0}
        tangentMode: 0
      - time: .649999976
        value: {x: 0, y: 0, z: 0}
        inSlope: {x: .0666666776, y: .50666672, z: 0}
        outSlope: {x: .0666666776, y: .50666672, z: 0}
        tangentMode: 0
      m_PreInfinity: 2
      m_PostInfinity: 2
    path: Head
  m_ScaleCurves:
  - curve:
      serializedVersion: 2
      m_Curve:
      - time: 0
        value: {x: 1, y: 1, z: 1}
        inSlope: {x: 0, y: -.371698022, z: 0}
        outSlope: {x: 0, y: -.371698022, z: 0}
        tangentMode: 0
      - time: .5
        value: {x: 1, y: .814150989, z: 1}
        inSlope: {x: 0, y: .433647811, z: 0}
        outSlope: {x: 0, y: .433647811, z: 0}
        tangentMode: 0
      - time: .649999976
        value: {x: 1, y: 1, z: 1}
        inSlope: {x: 0, y: 1.23899364, z: 0}
        outSlope: {x: 0, y: 1.23899364, z: 0}
        tangentMode: 0
      m_PreInfinity: 2
      m_PostInfinity: 2
    path: Head
  m_FloatCurves: []
  m_PPtrCurves: []
  m_SampleRate: 60
  m_WrapMode: 0
  m_Bounds:
    m_Center: {x: 0, y: 0, z: 0}
    m_Extent: {x: 0, y: 0, z: 0}
  m_ClipBindingConstant:
    genericBindings:
    - path: 2685614196
      attribute: 1
      script: {fileID: 0}
      classID: 4
      customType: 0
      isPPtrCurve: 0
    - path: 130111906
      attribute: 1
      script: {fileID: 0}
      classID: 4
      customType: 0
      isPPtrCurve: 0
    - path: 130111906
      attribute: 2
      script: {fileID: 0}
      classID: 4
      customType: 0
      isPPtrCurve: 0
    - path: 2685614196
      attribute: 2
      script: {fileID: 0}
      classID: 4
      customType: 0
      isPPtrCurve: 0
    - path: 130111906
      attribute: 3
      script: {fileID: 0}
      classID: 4
      customType: 0
      isPPtrCurve: 0
    pptrCurveMapping: []
  m_AnimationClipSettings:
    serializedVersion: 2
    m_StartTime: 0
    m_StopTime: .649999976
    m_OrientationOffsetY: 0
    m_Level: 0
    m_CycleOffset: 0
    m_LoopTime: 1
    m_LoopBlend: 0
    m_LoopBlendOrientation: 0
    m_LoopBlendPositionY: 0
    m_LoopBlendPositionXZ: 0
    m_KeepOriginalOrientation: 0
    m_KeepOriginalPositionY: 1
    m_KeepOriginalPositionXZ: 0
    m_HeightFromFeet: 0
    m_Mirror: 0
  m_EditorCurves:
  - curve:
      serializedVersion: 2
      m_Curve:
      - time: 0
        value: 0
        inSlope: 0
        outSlope: 0
        tangentMode: 10
      - time: .25
        value: 0
        inSlope: 0
        outSlope: 0
        tangentMode: 10
      - time: .649999976
        value: 0
        inSlope: 0
        outSlope: 0
        tangentMode: 10
      m_PreInfinity: 2
      m_PostInfinity: 2
    attribute: m_LocalPosition.z
    path: Arm
    classID: 4
    script: {fileID: 0}
  - curve:
      serializedVersion: 2
      m_Curve:
      - time: 0
        value: -.513000011
        inSlope: .472000003
        outSlope: .472000003
        tangentMode: 10
      - time: .25
        value: -.395000011
        inSlope: .0884999931
        outSlope: .0884999931
        tangentMode: 10
      - time: .649999976
        value: -.513000011
        inSlope: -.295000017
        outSlope: -.295000017
        tangentMode: 10
      m_PreInfinity: 2
      m_PostInfinity: 2
    attribute: m_LocalPosition.y
    path: Arm
    classID: 4
    script: {fileID: 0}
  - curve:
      serializedVersion: 2
      m_Curve:
      - time: 0
        value: -.023
        inSlope: .19600001
        outSlope: .19600001
        tangentMode: 10
      - time: .25
        value: .0260000005
        inSlope: .03675
        outSlope: .03675
        tangentMode: 10
      - time: .649999976
        value: -.023
        inSlope: -.12250001
        outSlope: -.12250001
        tangentMode: 10
      m_PreInfinity: 2
      m_PostInfinity: 2
    attribute: m_LocalPosition.x
    path: Arm
    classID: 4
    script: {fileID: 0}
  - curve:
      serializedVersion: 2
      m_Curve:
      - time: 0
        value: .999974489
        inSlope: -.00201702118
        outSlope: -.00201702118
        tangentMode: 0
      - time: .0166666675
        value: .999940872
        inSlope: -.00263571739
        outSlope: -.00263571739
        tangentMode: 0
      - time: .0333333351
        value: .999886632
        inSlope: -.0040161605
        outSlope: -.0040161605
        tangentMode: 0
      - time: .0500000045
        value: .999807
        inSlope: -.00566661358
        outSlope: -.00566661358
        tangentMode: 0
      - time: .0666666701
        value: .999697745
        inSlope: -.0075566778
        outSlope: -.0075566778
        tangentMode: 0
      - time: .0833333358
        value: .999555111
        inSlope: -.00964880083
        outSlope: -.00964880083
        tangentMode: 0
      - time: .100000001
        value: .999376118
        inSlope: -.0118911276
        outSlope: -.0118911276
        tangentMode: 0
      - time: .116666667
        value: .99915874
        inSlope: -.0142282229
        outSlope: -.0142282229
        tangentMode: 0
      - time: .13333334
        value: .998901844
        inSlope: -.0165975075
        outSlope: -.0165975075
        tangentMode: 0
      - time: .150000006
        value: .99860549
        inSlope: -.0189310331
        outSlope: -.0189310331
        tangentMode: 0
      - time: .166666672
        value: .99827081
        inSlope: -.0211572666
        outSlope: -.0211572666
        tangentMode: 0
      - time: .183333337
        value: .997900248
        inSlope: -.0232046861
        outSlope: -.0232046861
        tangentMode: 0
      - time: .200000003
        value: .99749732
        inSlope: -.0250017662
        outSlope: -.0250017662
        tangentMode: 0
      - time: .216666669
        value: .997066855
        inSlope: -.0264787693
        outSlope: -.0264787693
        tangentMode: 0
      - time: .233333334
        value: .996614695
        inSlope: -.0275677461
        outSlope: -.0275677461
        tangentMode: 0
      - time: .25
        value: .996147931
        inSlope: -.0282060988
        outSlope: -.0282060988
        tangentMode: 0
      - time: .266666681
        value: .995674491
        inSlope: -.0283384081
        outSlope: -.0283384081
        tangentMode: 0
      - time: .283333361
        value: .995203316
        inSlope: -.0279146209
        outSlope: -.0279146209
        tangentMode: 0
      - time: .300000042
        value: .994744003
        inSlope: -.0268953815
        outSlope: -.0268953815
        tangentMode: 0
      - time: .316666722
        value: .994306803
        inSlope: -.0252520815
        outSlope: -.0252520815
        tangentMode: 0
      - time: .333333403
        value: .993902266
        inSlope: -.0229686312
        outSlope: -.0229686312
        tangentMode: 0
      - time: .350000083
        value: .993541181
        inSlope: -.0200396609
        outSlope: -.0200396609
        tangentMode: 0
      - time: .366666764
        value: .993234277
        inSlope: -.0164794791
        outSlope: -.0164794791
        tangentMode: 0
      - time: .383333445
        value: .992991865
        inSlope: -.0123149054
        outSlope: -.0123149054
        tangentMode: 0
      - time: .400000125
        value: .99282378
        inSlope: -.00759243313
        outSlope: -.00759243313
        tangentMode: 0
      - time: .416666806
        value: .992738783
        inSlope: -.00237822346
        outSlope: -.00237822346
        tangentMode: 0
      - time: .433333486
        value: .992744505
        inSlope: .00323831756
        outSlope: .00323831756
        tangentMode: 0
      - time: .450000167
        value: .992846727
        inSlope: .00914632529
        outSlope: .00914632529
        tangentMode: 0
      - time: .466666847
        value: .993049383
        inSlope: .0152170528
        outSlope: .0152170528
        tangentMode: 0
      - time: .483333528
        value: .993353963
        inSlope: .0212878026
        outSlope: .0212878026
        tangentMode: 0
      - time: .500000179
        value: .993758976
        inSlope: .0305986684
        outSlope: .0305986684
        tangentMode: 0
      - time: .51666683
        value: .994373918
        inSlope: .0442493372
        outSlope: .0442493372
        tangentMode: 0
      - time: .53333348
        value: .995233953
        inSlope: .0553769395
        outSlope: .0553769395
        tangentMode: 0
      - time: .550000131
        value: .996219814
        inSlope: .0595307909
        outSlope: .0595307909
        tangentMode: 0
      - time: .566666782
        value: .997218311
        inSlope: .0574011132
        outSlope: .0574011132
        tangentMode: 0
      - time: .583333433
        value: .998133183
        inSlope: .0502360351
        outSlope: .0502360351
        tangentMode: 0
      - time: .600000083
        value: .998892844
        inSlope: .039662756
        outSlope: .039662756
        tangentMode: 0
      - time: .616666734
        value: .999455273
        inSlope: .0275016092
        outSlope: .0275016092
        tangentMode: 0
      - time: .633333385
        value: .999809563
        inSlope: .0155765144
        outSlope: .0155765144
        tangentMode: 0
      - time: .649999976
        value: .999974489
        inSlope: .00989560783
        outSlope: .00989560783
        tangentMode: 0
      m_PreInfinity: 2
      m_PostInfinity: 2
    attribute: m_LocalRotation.w
    path: Head
    classID: 4
    script: {fileID: 0}
  - curve:
      serializedVersion: 2
      m_Curve:
      - time: 0
        value: .00714293774
        inSlope: .223877937
        outSlope: .223877937
        tangentMode: 0
      - time: .0166666675
        value: .0108742369
        inSlope: .237474889
        outSlope: .237474889
        tangentMode: 0
      - time: .0333333351
        value: .015058768
        inSlope: .263153076
        outSlope: .263153076
        tangentMode: 0
      - time: .0500000045
        value: .0196460076
        inSlope: .285798997
        outSlope: .285798997
        tangentMode: 0
      - time: .0666666701
        value: .0245854016
        inSlope: .305410296
        outSlope: .305410296
        tangentMode: 0
      - time: .0833333358
        value: .0298263505
        inSlope: .321984828
        outSlope: .321984828
        tangentMode: 0
      - time: .100000001
        value: .0353182293
        inSlope: .33552134
        outSlope: .33552134
        tangentMode: 0
      - time: .116666667
        value: .0410103947
        inSlope: .346019447
        outSlope: .346019447
        tangentMode: 0
      - time: .13333334
        value: .0468522124
        inSlope: .353479683
        outSlope: .353479683
        tangentMode: 0
      - time: .150000006
        value: .052793052
        inSlope: .357903361
        outSlope: .357903361
        tangentMode: 0
      - time: .166666672
        value: .0587823242
        inSlope: .359292328
        outSlope: .359292328
        tangentMode: 0
      - time: .183333337
        value: .0647694618
        inSlope: .357651353
        outSlope: .357651353
        tangentMode: 0
      - time: .200000003
        value: .0707040355
        inSlope: .352985203
        outSlope: .352985203
        tangentMode: 0
      - time: .216666669
        value: .0765356347
        inSlope: .345297992
        outSlope: .345297992
        tangentMode: 0
      - time: .233333334
        value: .082213968
        inSlope: .334597766
        outSlope: .334597766
        tangentMode: 0
      - time: .25
        value: .0876888931
        inSlope: .320891976
        outSlope: .320891976
        tangentMode: 0
      - time: .266666681
        value: .0929103717
        inSlope: .304186821
        outSlope: .304186821
        tangentMode: 0
      - time: .283333361
        value: .0978284627
        inSlope: .284488916
        outSlope: .284488916
        tangentMode: 0
      - time: .300000042
        value: .102393344
        inSlope: .261805713
        outSlope: .261805713
        tangentMode: 0
      - time: .316666722
        value: .106555328
        inSlope: .236143276
        outSlope: .236143276
        tangentMode: 0
      - time: .333333403
        value: .110264793
        inSlope: .207505137
        outSlope: .207505137
        tangentMode: 0
      - time: .350000083
        value: .113472171
        inSlope: .175894201
        outSlope: .175894201
        tangentMode: 0
      - time: .366666764
        value: .116127938
        inSlope: .141311169
        outSlope: .141311169
        tangentMode: 0
      - time: .383333445
        value: .118182547
        inSlope: .103754684
        outSlope: .103754684
        tangentMode: 0
      - time: .400000125
        value: .11958643
        inSlope: .0632198378
        outSlope: .0632198378
        tangentMode: 0
      - time: .416666806
        value: .120289877
        inSlope: .0196987987
        outSlope: .0196987987
        tangentMode: 0
      - time: .433333486
        value: .120243058
        inSlope: -.026817821
        outSlope: -.026817821
        tangentMode: 0
      - time: .450000167
        value: .119395949
        inSlope: -.0763441026
        outSlope: -.0763441026
        tangentMode: 0
      - time: .466666847
        value: .117698252
        inSlope: -.128895909
        outSlope: -.128895909
        tangentMode: 0
      - time: .483333528
        value: .115099415
        inSlope: -.184489757
        outSlope: -.184489757
        tangentMode: 0
      - time: .500000179
        value: .111548595
        inSlope: -.275180161
        outSlope: -.275180161
        tangentMode: 0
      - time: .51666683
        value: .105926752
        inSlope: -.420969099
        outSlope: -.420969099
        tangentMode: 0
      - time: .53333348
        value: .0975163057
        inSlope: -.571751177
        outSlope: -.571751177
        tangentMode: 0
      - time: .550000131
        value: .0868683979
        inSlope: -.689410806
        outSlope: -.689410806
        tangentMode: 0
      - time: .566666782
        value: .0745359659
        inSlope: -.773812175
        outSlope: -.773812175
        tangentMode: 0
      - time: .583333433
        value: .0610746816
        inSlope: -.824786663
        outSlope: -.824786663
        tangentMode: 0
      - time: .600000083
        value: .0470431037
        inSlope: -.842173934
        outSlope: -.842173934
        tangentMode: 0
      - time: .616666734
        value: .0330022424
        inSlope: -.825856924
        outSlope: -.825856924
        tangentMode: 0
      - time: .633333385
        value: .0195145663
        inSlope: -.775781155
        outSlope: -.775781155
        tangentMode: 0
      - time: .649999976
        value: .00714293774
        inSlope: -.742301047
        outSlope: -.742301047
        tangentMode: 0
      m_PreInfinity: 2
      m_PostInfinity: 2
    attribute: m_LocalRotation.z
    path: Head
    classID: 4
    script: {fileID: 0}
  - curve:
      serializedVersion: 2
      m_Curve:
      - time: 0
        value: 0
        inSlope: 0
        outSlope: 0
        tangentMode: 0
      - time: .0166666675
        value: 0
        inSlope: 0
        outSlope: 0
        tangentMode: 0
      - time: .0333333351
        value: 0
        inSlope: 0
        outSlope: 0
        tangentMode: 0
      - time: .0500000045
        value: 0
        inSlope: 0
        outSlope: 0
        tangentMode: 0
      - time: .0666666701
        value: 0
        inSlope: 0
        outSlope: 0
        tangentMode: 0
      - time: .0833333358
        value: 0
        inSlope: 0
        outSlope: 0
        tangentMode: 0
      - time: .100000001
        value: 0
        inSlope: 0
        outSlope: 0
        tangentMode: 0
      - time: .116666667
        value: 0
        inSlope: 0
        outSlope: 0
        tangentMode: 0
      - time: .13333334
        value: 0
        inSlope: 0
        outSlope: 0
        tangentMode: 0
      - time: .150000006
        value: 0
        inSlope: 0
        outSlope: 0
        tangentMode: 0
      - time: .166666672
        value: 0
        inSlope: 0
        outSlope: 0
        tangentMode: 0
      - time: .183333337
        value: 0
        inSlope: 0
        outSlope: 0
        tangentMode: 0
      - time: .200000003
        value: 0
        inSlope: 0
        outSlope: 0
        tangentMode: 0
      - time: .216666669
        value: 0
        inSlope: 0
        outSlope: 0
        tangentMode: 0
      - time: .233333334
        value: 0
        inSlope: 0
        outSlope: 0
        tangentMode: 0
      - time: .25
        value: 0
        inSlope: 0
        outSlope: 0
        tangentMode: 0
      - time: .266666681
        value: 0
        inSlope: 0
        outSlope: 0
        tangentMode: 0
      - time: .283333361
        value: 0
        inSlope: 0
        outSlope: 0
        tangentMode: 0
      - time: .300000042
        value: 0
        inSlope: 0
        outSlope: 0
        tangentMode: 0
      - time: .316666722
        value: 0
        inSlope: 0
        outSlope: 0
        tangentMode: 0
      - time: .333333403
        value: 0
        inSlope: 0
        outSlope: 0
        tangentMode: 0
      - time: .350000083
        value: 0
        inSlope: 0
        outSlope: 0
        tangentMode: 0
      - time: .366666764
        value: 0
        inSlope: 0
        outSlope: 0
        tangentMode: 0
      - time: .383333445
        value: 0
        inSlope: 0
        outSlope: 0
        tangentMode: 0
      - time: .400000125
        value: 0
        inSlope: 0
        outSlope: 0
        tangentMode: 0
      - time: .416666806
        value: 0
        inSlope: 0
        outSlope: 0
        tangentMode: 0
      - time: .433333486
        value: 0
        inSlope: 0
        outSlope: 0
        tangentMode: 0
      - time: .450000167
        value: 0
        inSlope: 0
        outSlope: 0
        tangentMode: 0
      - time: .466666847
        value: 0
        inSlope: 0
        outSlope: 0
        tangentMode: 0
      - time: .483333528
        value: 0
        inSlope: 0
        outSlope: 0
        tangentMode: 0
      - time: .500000179
        value: 0
        inSlope: 0
        outSlope: 0
        tangentMode: 0
      - time: .51666683
        value: 0
        inSlope: 0
        outSlope: 0
        tangentMode: 0
      - time: .53333348
        value: 0
        inSlope: 0
        outSlope: 0
        tangentMode: 0
      - time: .550000131
        value: 0
        inSlope: 0
        outSlope: 0
        tangentMode: 0
      - time: .566666782
        value: 0
        inSlope: 0
        outSlope: 0
        tangentMode: 0
      - time: .583333433
        value: 0
        inSlope: 0
        outSlope: 0
        tangentMode: 0
      - time: .600000083
        value: 0
        inSlope: 0
        outSlope: 0
        tangentMode: 0
      - time: .616666734
        value: 0
        inSlope: 0
        outSlope: 0
        tangentMode: 0
      - time: .633333385
        value: 0
        inSlope: 0
        outSlope: 0
        tangentMode: 0
      - time: .649999976
        value: 0
        inSlope: 0
        outSlope: 0
        tangentMode: 0
      m_PreInfinity: 2
      m_PostInfinity: 2
    attribute: m_LocalRotation.y
    path: Head
    classID: 4
    script: {fileID: 0}
  - curve:
      serializedVersion: 2
      m_Curve:
      - time: 0
        value: 0
        inSlope: 0
        outSlope: 0
        tangentMode: 0
      - time: .0166666675
        value: 0
        inSlope: 0
        outSlope: 0
        tangentMode: 0
      - time: .0333333351
        value: 0
        inSlope: 0
        outSlope: 0
        tangentMode: 0
      - time: .0500000045
        value: 0
        inSlope: 0
        outSlope: 0
        tangentMode: 0
      - time: .0666666701
        value: 0
        inSlope: 0
        outSlope: 0
        tangentMode: 0
      - time: .0833333358
        value: 0
        inSlope: 0
        outSlope: 0
        tangentMode: 0
      - time: .100000001
        value: 0
        inSlope: 0
        outSlope: 0
        tangentMode: 0
      - time: .116666667
        value: 0
        inSlope: 0
        outSlope: 0
        tangentMode: 0
      - time: .13333334
        value: 0
        inSlope: 0
        outSlope: 0
        tangentMode: 0
      - time: .150000006
        value: 0
        inSlope: 0
        outSlope: 0
        tangentMode: 0
      - time: .166666672
        value: 0
        inSlope: 0
        outSlope: 0
        tangentMode: 0
      - time: .183333337
        value: 0
        inSlope: 0
        outSlope: 0
        tangentMode: 0
      - time: .200000003
        value: 0
        inSlope: 0
        outSlope: 0
        tangentMode: 0
      - time: .216666669
        value: 0
        inSlope: 0
        outSlope: 0
        tangentMode: 0
      - time: .233333334
        value: 0
        inSlope: 0
        outSlope: 0
        tangentMode: 0
      - time: .25
        value: 0
        inSlope: 0
        outSlope: 0
        tangentMode: 0
      - time: .266666681
        value: 0
        inSlope: 0
        outSlope: 0
        tangentMode: 0
      - time: .283333361
        value: 0
        inSlope: 0
        outSlope: 0
        tangentMode: 0
      - time: .300000042
        value: 0
        inSlope: 0
        outSlope: 0
        tangentMode: 0
      - time: .316666722
        value: 0
        inSlope: 0
        outSlope: 0
        tangentMode: 0
      - time: .333333403
        value: 0
        inSlope: 0
        outSlope: 0
        tangentMode: 0
      - time: .350000083
        value: 0
        inSlope: 0
        outSlope: 0
        tangentMode: 0
      - time: .366666764
        value: 0
        inSlope: 0
        outSlope: 0
        tangentMode: 0
      - time: .383333445
        value: 0
        inSlope: 0
        outSlope: 0
        tangentMode: 0
      - time: .400000125
        value: 0
        inSlope: 0
        outSlope: 0
        tangentMode: 0
      - time: .416666806
        value: 0
        inSlope: 0
        outSlope: 0
        tangentMode: 0
      - time: .433333486
        value: 0
        inSlope: 0
        outSlope: 0
        tangentMode: 0
      - time: .450000167
        value: 0
        inSlope: 0
        outSlope: 0
        tangentMode: 0
      - time: .466666847
        value: 0
        inSlope: 0
        outSlope: 0
        tangentMode: 0
      - time: .483333528
        value: 0
        inSlope: 0
        outSlope: 0
        tangentMode: 0
      - time: .500000179
        value: 0
        inSlope: 0
        outSlope: 0
        tangentMode: 0
      - time: .51666683
        value: 0
        inSlope: 0
        outSlope: 0
        tangentMode: 0
      - time: .53333348
        value: 0
        inSlope: 0
        outSlope: 0
        tangentMode: 0
      - time: .550000131
        value: 0
        inSlope: 0
        outSlope: 0
        tangentMode: 0
      - time: .566666782
        value: 0
        inSlope: 0
        outSlope: 0
        tangentMode: 0
      - time: .583333433
        value: 0
        inSlope: 0
        outSlope: 0
        tangentMode: 0
      - time: .600000083
        value: 0
        inSlope: 0
        outSlope: 0
        tangentMode: 0
      - time: .616666734
        value: 0
        inSlope: 0
        outSlope: 0
        tangentMode: 0
      - time: .633333385
        value: 0
        inSlope: 0
        outSlope: 0
        tangentMode: 0
      - time: .649999976
        value: 0
        inSlope: 0
        outSlope: 0
        tangentMode: 0
      m_PreInfinity: 2
      m_PostInfinity: 2
    attribute: m_LocalRotation.x
    path: Head
    classID: 4
    script: {fileID: 0}
  - curve:
      serializedVersion: 2
      m_Curve:
      - time: 0
        value: 0
        inSlope: -.0199999996
        outSlope: -.0199999996
        tangentMode: 10
      - time: .5
        value: -.00999999978
        inSlope: .023333339
        outSlope: .023333339
        tangentMode: 10
      - time: .649999976
        value: 0
        inSlope: .0666666776
        outSlope: .0666666776
        tangentMode: 10
      m_PreInfinity: 2
      m_PostInfinity: 2
    attribute: m_LocalPosition.x
    path: Head
    classID: 4
    script: {fileID: 0}
  - curve:
      serializedVersion: 2
      m_Curve:
      - time: 0
        value: 0
        inSlope: -.151999995
        outSlope: -.151999995
        tangentMode: 10
      - time: .5
        value: -.0759999976
        inSlope: .177333355
        outSlope: .177333355
        tangentMode: 10
      - time: .649999976
        value: 0
        inSlope: .50666672
        outSlope: .50666672
        tangentMode: 10
      m_PreInfinity: 2
      m_PostInfinity: 2
    attribute: m_LocalPosition.y
    path: Head
    classID: 4
    script: {fileID: 0}
  - curve:
      serializedVersion: 2
      m_Curve:
      - time: 0
        value: 0
        inSlope: 0
        outSlope: 0
        tangentMode: 10
      - time: .5
        value: 0
        inSlope: 0
        outSlope: 0
        tangentMode: 10
      - time: .649999976
        value: 0
        inSlope: 0
        outSlope: 0
        tangentMode: 10
      m_PreInfinity: 2
      m_PostInfinity: 2
    attribute: m_LocalPosition.z
    path: Head
    classID: 4
    script: {fileID: 0}
  - curve:
      serializedVersion: 2
      m_Curve:
      - time: 0
        value: 1
        inSlope: 0
        outSlope: 0
        tangentMode: 10
      - time: .5
        value: 1
        inSlope: 0
        outSlope: 0
        tangentMode: 10
      - time: .649999976
        value: 1
        inSlope: 0
        outSlope: 0
        tangentMode: 10
      m_PreInfinity: 2
      m_PostInfinity: 2
    attribute: m_LocalScale.x
    path: Head
    classID: 4
    script: {fileID: 0}
  - curve:
      serializedVersion: 2
      m_Curve:
      - time: 0
        value: 1
        inSlope: -.371698022
        outSlope: -.371698022
        tangentMode: 10
      - time: .5
        value: .814150989
        inSlope: .433647811
        outSlope: .433647811
        tangentMode: 10
      - time: .649999976
        value: 1
        inSlope: 1.23899364
        outSlope: 1.23899364
        tangentMode: 10
      m_PreInfinity: 2
      m_PostInfinity: 2
    attribute: m_LocalScale.y
    path: Head
    classID: 4
    script: {fileID: 0}
  - curve:
      serializedVersion: 2
      m_Curve:
      - time: 0
        value: 1
        inSlope: 0
        outSlope: 0
        tangentMode: 10
      - time: .5
        value: 1
        inSlope: 0
        outSlope: 0
        tangentMode: 10
      - time: .649999976
        value: 1
        inSlope: 0
        outSlope: 0
        tangentMode: 10
      m_PreInfinity: 2
      m_PostInfinity: 2
    attribute: m_LocalScale.z
    path: Head
    classID: 4
    script: {fileID: 0}
  - curve:
      serializedVersion: 2
      m_Curve:
      - time: 0
        value: 0
        inSlope: 0
        outSlope: 0
        tangentMode: 0
      - time: .0166666675
        value: 0
        inSlope: 0
        outSlope: 0
        tangentMode: 0
      - time: .0333333351
        value: 0
        inSlope: 0
        outSlope: 0
        tangentMode: 0
      - time: .0500000045
        value: 0
        inSlope: 0
        outSlope: 0
        tangentMode: 0
      - time: .0666666701
        value: 0
        inSlope: 0
        outSlope: 0
        tangentMode: 0
      - time: .0833333358
        value: 0
        inSlope: 0
        outSlope: 0
        tangentMode: 0
      - time: .100000001
        value: 0
        inSlope: 0
        outSlope: 0
        tangentMode: 0
      - time: .116666667
        value: 0
        inSlope: 0
        outSlope: 0
        tangentMode: 0
      - time: .13333334
        value: 0
        inSlope: 0
        outSlope: 0
        tangentMode: 0
      - time: .150000006
        value: 0
        inSlope: 0
        outSlope: 0
        tangentMode: 0
      - time: .166666672
        value: 0
        inSlope: 0
        outSlope: 0
        tangentMode: 0
      - time: .183333337
        value: 0
        inSlope: 0
        outSlope: 0
        tangentMode: 0
      - time: .200000003
        value: 0
        inSlope: 0
        outSlope: 0
        tangentMode: 0
      - time: .216666669
        value: 0
        inSlope: 0
        outSlope: 0
        tangentMode: 0
      - time: .233333334
        value: 0
        inSlope: 0
        outSlope: 0
        tangentMode: 0
      - time: .25
        value: 0
        inSlope: 0
        outSlope: 0
        tangentMode: 0
      - time: .266666681
        value: 0
        inSlope: 0
        outSlope: 0
        tangentMode: 0
      - time: .283333361
        value: 0
        inSlope: 0
        outSlope: 0
        tangentMode: 0
      - time: .300000042
        value: 0
        inSlope: 0
        outSlope: 0
        tangentMode: 0
      - time: .316666722
        value: 0
        inSlope: 0
        outSlope: 0
        tangentMode: 0
      - time: .333333403
        value: 0
        inSlope: 0
        outSlope: 0
        tangentMode: 0
      - time: .350000083
        value: 0
        inSlope: 0
        outSlope: 0
        tangentMode: 0
      - time: .366666764
        value: 0
        inSlope: 0
        outSlope: 0
        tangentMode: 0
      - time: .383333445
        value: 0
        inSlope: 0
        outSlope: 0
        tangentMode: 0
      - time: .400000125
        value: 0
        inSlope: 0
        outSlope: 0
        tangentMode: 0
      - time: .416666806
        value: 0
        inSlope: 0
        outSlope: 0
        tangentMode: 0
      - time: .433333486
        value: 0
        inSlope: 0
        outSlope: 0
        tangentMode: 0
      - time: .450000167
        value: 0
        inSlope: 0
        outSlope: 0
        tangentMode: 0
      - time: .466666847
        value: 0
        inSlope: 0
        outSlope: 0
        tangentMode: 0
      - time: .483333528
        value: 0
        inSlope: 0
        outSlope: 0
        tangentMode: 0
      - time: .500000179
        value: 0
        inSlope: 0
        outSlope: 0
        tangentMode: 0
      - time: .51666683
        value: 0
        inSlope: 0
        outSlope: 0
        tangentMode: 0
      - time: .53333348
        value: 0
        inSlope: 0
        outSlope: 0
        tangentMode: 0
      - time: .550000131
        value: 0
        inSlope: 0
        outSlope: 0
        tangentMode: 0
      - time: .566666782
        value: 0
        inSlope: 0
        outSlope: 0
        tangentMode: 0
      - time: .583333433
        value: 0
        inSlope: 0
        outSlope: 0
        tangentMode: 0
      - time: .600000083
        value: 0
        inSlope: 0
        outSlope: 0
        tangentMode: 0
      - time: .616666734
        value: 0
        inSlope: 0
        outSlope: 0
        tangentMode: 0
      - time: .633333385
        value: 0
        inSlope: 0
        outSlope: 0
        tangentMode: 0
      - time: .649999976
        value: 0
        inSlope: 0
        outSlope: 0
        tangentMode: 0
      m_PreInfinity: 2
      m_PostInfinity: 2
    attribute: m_LocalRotation.x
    path: Arm
    classID: 4
    script: {fileID: 0}
  - curve:
      serializedVersion: 2
      m_Curve:
      - time: 0
        value: 0
        inSlope: 0
        outSlope: 0
        tangentMode: 0
      - time: .0166666675
        value: 0
        inSlope: 0
        outSlope: 0
        tangentMode: 0
      - time: .0333333351
        value: 0
        inSlope: 0
        outSlope: 0
        tangentMode: 0
      - time: .0500000045
        value: 0
        inSlope: 0
        outSlope: 0
        tangentMode: 0
      - time: .0666666701
        value: 0
        inSlope: 0
        outSlope: 0
        tangentMode: 0
      - time: .0833333358
        value: 0
        inSlope: 0
        outSlope: 0
        tangentMode: 0
      - time: .100000001
        value: 0
        inSlope: 0
        outSlope: 0
        tangentMode: 0
      - time: .116666667
        value: 0
        inSlope: 0
        outSlope: 0
        tangentMode: 0
      - time: .13333334
        value: 0
        inSlope: 0
        outSlope: 0
        tangentMode: 0
      - time: .150000006
        value: 0
        inSlope: 0
        outSlope: 0
        tangentMode: 0
      - time: .166666672
        value: 0
        inSlope: 0
        outSlope: 0
        tangentMode: 0
      - time: .183333337
        value: 0
        inSlope: 0
        outSlope: 0
        tangentMode: 0
      - time: .200000003
        value: 0
        inSlope: 0
        outSlope: 0
        tangentMode: 0
      - time: .216666669
        value: 0
        inSlope: 0
        outSlope: 0
        tangentMode: 0
      - time: .233333334
        value: 0
        inSlope: 0
        outSlope: 0
        tangentMode: 0
      - time: .25
        value: 0
        inSlope: 0
        outSlope: 0
        tangentMode: 0
      - time: .266666681
        value: 0
        inSlope: 0
        outSlope: 0
        tangentMode: 0
      - time: .283333361
        value: 0
        inSlope: 0
        outSlope: 0
        tangentMode: 0
      - time: .300000042
        value: 0
        inSlope: 0
        outSlope: 0
        tangentMode: 0
      - time: .316666722
        value: 0
        inSlope: 0
        outSlope: 0
        tangentMode: 0
      - time: .333333403
        value: 0
        inSlope: 0
        outSlope: 0
        tangentMode: 0
      - time: .350000083
        value: 0
        inSlope: 0
        outSlope: 0
        tangentMode: 0
      - time: .366666764
        value: 0
        inSlope: 0
        outSlope: 0
        tangentMode: 0
      - time: .383333445
        value: 0
        inSlope: 0
        outSlope: 0
        tangentMode: 0
      - time: .400000125
        value: 0
        inSlope: 0
        outSlope: 0
        tangentMode: 0
      - time: .416666806
        value: 0
        inSlope: 0
        outSlope: 0
        tangentMode: 0
      - time: .433333486
        value: 0
        inSlope: 0
        outSlope: 0
        tangentMode: 0
      - time: .450000167
        value: 0
        inSlope: 0
        outSlope: 0
        tangentMode: 0
      - time: .466666847
        value: 0
        inSlope: 0
        outSlope: 0
        tangentMode: 0
      - time: .483333528
        value: 0
        inSlope: 0
        outSlope: 0
        tangentMode: 0
      - time: .500000179
        value: 0
        inSlope: 0
        outSlope: 0
        tangentMode: 0
      - time: .51666683
        value: 0
        inSlope: 0
        outSlope: 0
        tangentMode: 0
      - time: .53333348
        value: 0
        inSlope: 0
        outSlope: 0
        tangentMode: 0
      - time: .550000131
        value: 0
        inSlope: 0
        outSlope: 0
        tangentMode: 0
      - time: .566666782
        value: 0
        inSlope: 0
        outSlope: 0
        tangentMode: 0
      - time: .583333433
        value: 0
        inSlope: 0
        outSlope: 0
        tangentMode: 0
      - time: .600000083
        value: 0
        inSlope: 0
        outSlope: 0
        tangentMode: 0
      - time: .616666734
        value: 0
        inSlope: 0
        outSlope: 0
        tangentMode: 0
      - time: .633333385
        value: 0
        inSlope: 0
        outSlope: 0
        tangentMode: 0
      - time: .649999976
        value: 0
        inSlope: 0
        outSlope: 0
        tangentMode: 0
      m_PreInfinity: 2
      m_PostInfinity: 2
    attribute: m_LocalRotation.y
    path: Arm
    classID: 4
    script: {fileID: 0}
  - curve:
      serializedVersion: 2
      m_Curve:
      - time: 0
        value: .455238402
        inSlope: -4.691432
        outSlope: -4.691432
        tangentMode: 0
      - time: .0166666675
        value: .377047867
        inSlope: -4.9786973
        outSlope: -4.9786973
        tangentMode: 0
      - time: .0333333351
        value: .289281815
        inSlope: -5.49776363
        outSlope: -5.49776363
        tangentMode: 0
      - time: .0500000045
        value: .193789065
        inSlope: -5.89184475
        outSlope: -5.89184475
        tangentMode: 0
      - time: .0666666701
        value: .0928869769
        inSlope: -6.13632774
        outSlope: -6.13632774
        tangentMode: 0
      - time: .0833333358
        value: -.0107551804
        inSlope: -6.21505785
        outSlope: -6.21505785
        tangentMode: 0
      - time: .100000001
        value: -.11428161
        inSlope: -6.12272739
        outSlope: -6.12272739
        tangentMode: 0
      - time: .116666667
        value: -.214846075
        inSlope: -5.86568832
        outSlope: -5.86568832
        tangentMode: 0
      - time: .13333334
        value: -.309804589
        inSlope: -5.46109772
        outSlope: -5.46109772
        tangentMode: 0
      - time: .150000006
        value: -.396882683
        inSlope: -4.93439293
        outSlope: -4.93439293
        tangentMode: 0
      - time: .166666672
        value: -.474284351
        inSlope: -4.31561089
        outSlope: -4.31561089
        tangentMode: 0
      - time: .183333337
        value: -.540736377
        inSlope: -3.63501406
        outSlope: -3.63501406
        tangentMode: 0
      - time: .200000003
        value: -.595451474
        inSlope: -2.91846538
        outSlope: -2.91846538
        tangentMode: 0
      - time: .216666669
        value: -.638018548
        inSlope: -2.18325043
        outSlope: -2.18325043
        tangentMode: 0
      - time: .233333334
        value: -.66822648
        inSlope: -1.43455815
        outSlope: -1.43455815
        tangentMode: 0
      - time: .25
        value: -.68583715
        inSlope: -.744005322
        outSlope: -.744005322
        tangentMode: 0
      - time: .266666681
        value: -.693026662
        inSlope: -.205498174
        outSlope: -.205498174
        tangentMode: 0
      - time: .283333361
        value: -.692687094
        inSlope: .231411859
        outSlope: .231411859
        tangentMode: 0
      - time: .300000042
        value: -.685312927
        inSlope: .64412123
        outSlope: .64412123
        tangentMode: 0
      - time: .316666722
        value: -.671216369
        inSlope: 1.04201412
        outSlope: 1.04201412
        tangentMode: 0
      - time: .333333403
        value: -.650579095
        inSlope: 1.43128455
        outSlope: 1.43128455
        tangentMode: 0
      - time: .350000083
        value: -.623506844
        inSlope: 1.81484365
        outSlope: 1.81484365
        tangentMode: 0
      - time: .366666764
        value: -.590084255
        inSlope: 2.19259143
        outSlope: 2.19259143
        tangentMode: 0
      - time: .383333445
        value: -.550420403
        inSlope: 2.56169176
        outSlope: 2.56169176
        tangentMode: 0
      - time: .400000125
        value: -.504694462
        inSlope: 2.91702676
        outSlope: 2.91702676
        tangentMode: 0
      - time: .416666806
        value: -.453186095
        inSlope: 3.25176358
        outSlope: 3.25176358
        tangentMode: 0
      - time: .433333486
        value: -.396302253
        inSlope: 3.55788565
        outSlope: 3.55788565
        tangentMode: 0
      - time: .450000167
        value: -.334589809
        inSlope: 3.82695746
        outSlope: 3.82695746
        tangentMode: 0
      - time: .466666847
        value: -.268736899
        inSlope: 4.05074739
        outSlope: 4.05074739
        tangentMode: 0
      - time: .483333528
        value: -.199564785
        inSlope: 4.22186947
        outSlope: 4.22186947
        tangentMode: 0
      - time: .500000179
        value: -.128007933
        inSlope: 4.33438206
        outSlope: 4.33438206
        tangentMode: 0
      - time: .51666683
        value: -.0550855063
        inSlope: 4.38421154
        outSlope: 4.38421154
        tangentMode: 0
      - time: .53333348
        value: .0181323215
        inSlope: 4.36945724
        outSlope: 4.36945724
        tangentMode: 0
      - time: .550000131
        value: .0905629322
        inSlope: 4.29050159
        outSlope: 4.29050159
        tangentMode: 0
      - time: .566666782
        value: .161148906
        inSlope: 4.14998007
        outSlope: 4.14998007
        tangentMode: 0
      - time: .583333433
        value: .22889547
        inSlope: 3.95253921
        outSlope: 3.95253921
        tangentMode: 0
      - time: .600000083
        value: .292900085
        inSlope: 3.70441341
        outSlope: 3.70441341
        tangentMode: 0
      - time: .616666734
        value: .352375805
        inSlope: 3.41294789
        outSlope: 3.41294789
        tangentMode: 0
      - time: .633333385
        value: .406664908
        inSlope: 3.085886
        outSlope: 3.085886
        tangentMode: 0
      - time: .649999976
        value: .455238402
        inSlope: 2.91442275
        outSlope: 2.91442275
        tangentMode: 0
      m_PreInfinity: 2
      m_PostInfinity: 2
    attribute: m_LocalRotation.z
    path: Arm
    classID: 4
    script: {fileID: 0}
  - curve:
      serializedVersion: 2
      m_Curve:
      - time: 0
        value: -.890369594
        inSlope: -2.14945078
        outSlope: -2.14945078
        tangentMode: 0
      - time: .0166666675
        value: -.926193774
        inSlope: -2.00623155
        outSlope: -2.00623155
        tangentMode: 0
      - time: .0333333351
        value: -.957243979
        inSlope: -1.64548326
        outSlope: -1.64548326
        tangentMode: 0
      - time: .0500000045
        value: -.98104322
        inSlope: -1.15297961
        outSlope: -1.15297961
        tangentMode: 0
      - time: .0666666701
        value: -.995676637
        inSlope: -.566968977
        outSlope: -.566968977
        tangentMode: 0
      - time: .0833333358
        value: -.999942183
        inSlope: .0668478012
        outSlope: .0668478012
        tangentMode: 0
      - time: .100000001
        value: -.993448377
        inSlope: .698828161
        outSlope: .698828161
        tangentMode: 0
      - time: .116666667
        value: -.976647913
        inSlope: 1.27944386
        outSlope: 1.27944386
        tangentMode: 0
      - time: .13333334
        value: -.95080024
        inSlope: 1.76335728
        outSlope: 1.76335728
        tangentMode: 0
      - time: .150000006
        value: -.917869329
        inSlope: 2.11285663
        outSlope: 2.11285663
        tangentMode: 0
      - time: .166666672
        value: -.88037169
        inSlope: 2.30031633
        outSlope: 2.30031633
        tangentMode: 0
      - time: .183333337
        value: -.841192126
        inSlope: 2.30941248
        outSlope: 2.30941248
        tangentMode: 0
      - time: .200000003
        value: -.803391278
        inSlope: 2.13513517
        outSlope: 2.13513517
        tangentMode: 0
      - time: .216666669
        value: -.770020962
        inSlope: 1.78300214
        outSlope: 1.78300214
        tangentMode: 0
      - time: .233333334
        value: -.743957877
        inSlope: 1.26797688
        outSlope: 1.26797688
        tangentMode: 0
      - time: .25
        value: -.72775507
        inSlope: .691376805
        outSlope: .691376805
        tangentMode: 0
      - time: .266666681
        value: -.72091198
        inSlope: .195504278
        outSlope: .195504278
        tangentMode: 0
      - time: .283333361
        value: -.721238256
        inSlope: -.220101878
        outSlope: -.220101878
        tangentMode: 0
      - time: .300000042
        value: -.728248715
        inSlope: -.600696325
        outSlope: -.600696325
        tangentMode: 0
      - time: .316666722
        value: -.741261482
        inSlope: -.935693145
        outSlope: -.935693145
        tangentMode: 0
      - time: .333333403
        value: -.759438515
        inSlope: -1.21669006
        outSlope: -1.21669006
        tangentMode: 0
      - time: .350000083
        value: -.781817853
        inSlope: -1.43709242
        outSlope: -1.43709242
        tangentMode: 0
      - time: .366666764
        value: -.807341635
        inSlope: -1.5920918
        outSlope: -1.5920918
        tangentMode: 0
      - time: .383333445
        value: -.834887624
        inSlope: -1.67868948
        outSlope: -1.67868948
        tangentMode: 0
      - time: .400000125
        value: -.863297999
        inSlope: -1.69584846
        outSlope: -1.69584846
        tangentMode: 0
      - time: .416666806
        value: -.891415954
        inSlope: -1.64466119
        outSlope: -1.64466119
        tangentMode: 0
      - time: .433333486
        value: -.918120086
        inSlope: -1.52843595
        outSlope: -1.52843595
        tangentMode: 0
      - time: .450000167
        value: -.942363858
        inSlope: -1.3528049
        outSlope: -1.3528049
        tangentMode: 0
      - time: .466666847
        value: -.963213623
        inSlope: -1.12562203
        outSlope: -1.12562203
        tangentMode: 0
      - time: .483333528
        value: -.979884624
        inSlope: -.856785059
        outSlope: -.856785059
        tangentMode: 0
      - time: .500000179
        value: -.991773129
        inSlope: -.55791074
        outSlope: -.55791074
        tangentMode: 0
      - time: .51666683
        value: -.998481631
        inSlope: -.241874695
        outSlope: -.241874695
        tangentMode: 0
      - time: .53333348
        value: -.99983561
        inSlope: .0777269155
        outSlope: .0777269155
        tangentMode: 0
      - time: .550000131
        value: -.995890737
        inSlope: .387164742
        outSlope: .387164742
        tangentMode: 0
      - time: .566666782
        value: -.986930132
        inSlope: .673192203
        outSlope: .673192203
        tangentMode: 0
      - time: .583333433
        value: -.973451018
        inSlope: .923612356
        outSlope: .923612356
        tangentMode: 0
      - time: .600000083
        value: -.956143081
        inSlope: 1.1277734
        outSlope: 1.1277734
        tangentMode: 0
      - time: .616666734
        value: -.935858607
        inSlope: 1.27697229
        outSlope: 1.27697229
        tangentMode: 0
      - time: .633333385
        value: -.913577378
        inSlope: 1.36467421
        outSlope: 1.36467421
        tangentMode: 0
      - time: .649999976
        value: -.890369594
        inSlope: 1.39247334
        outSlope: 1.39247334
        tangentMode: 0
      m_PreInfinity: 2
      m_PostInfinity: 2
    attribute: m_LocalRotation.w
    path: Arm
    classID: 4
    script: {fileID: 0}
  m_EulerEditorCurves:
  - curve:
      serializedVersion: 2
      m_Curve:
      - time: 0
        value: -0
        inSlope: 0
        outSlope: 0
        tangentMode: 0
      - time: .0166666675
        value: -0
        inSlope: 0
        outSlope: 0
        tangentMode: 0
      - time: .0333333351
        value: -0
        inSlope: 0
        outSlope: 0
        tangentMode: 0
      - time: .0500000045
        value: -0
        inSlope: 0
        outSlope: 0
        tangentMode: 0
      - time: .0666666701
        value: -0
        inSlope: 0
        outSlope: 0
        tangentMode: 0
      - time: .0833333358
        value: -0
        inSlope: 0
        outSlope: 0
        tangentMode: 0
      - time: .100000001
        value: -0
        inSlope: 0
        outSlope: 0
        tangentMode: 0
      - time: .116666667
        value: -0
        inSlope: 0
        outSlope: 0
        tangentMode: 0
      - time: .13333334
        value: -0
        inSlope: 0
        outSlope: 0
        tangentMode: 0
      - time: .150000006
        value: -0
        inSlope: 0
        outSlope: 0
        tangentMode: 0
      - time: .166666672
        value: -0
        inSlope: 0
        outSlope: 0
        tangentMode: 0
      - time: .183333337
        value: -0
        inSlope: 0
        outSlope: 0
        tangentMode: 0
      - time: .200000003
        value: -0
        inSlope: 0
        outSlope: 0
        tangentMode: 0
      - time: .216666669
        value: -0
        inSlope: 0
        outSlope: 0
        tangentMode: 0
      - time: .233333334
        value: -0
        inSlope: 0
        outSlope: 0
        tangentMode: 0
      - time: .25
        value: -0
        inSlope: 0
        outSlope: 0
        tangentMode: 0
      - time: .266666681
        value: -0
        inSlope: 0
        outSlope: 0
        tangentMode: 0
      - time: .283333361
        value: -0
        inSlope: 0
        outSlope: 0
        tangentMode: 0
      - time: .300000042
        value: -0
        inSlope: 0
        outSlope: 0
        tangentMode: 0
      - time: .316666722
        value: -0
        inSlope: 0
        outSlope: 0
        tangentMode: 0
      - time: .333333403
        value: -0
        inSlope: 0
        outSlope: 0
        tangentMode: 0
      - time: .350000083
        value: -0
        inSlope: 0
        outSlope: 0
        tangentMode: 0
      - time: .366666764
        value: -0
        inSlope: 0
        outSlope: 0
        tangentMode: 0
      - time: .383333445
        value: -0
        inSlope: 0
        outSlope: 0
        tangentMode: 0
      - time: .400000125
        value: -0
        inSlope: 0
        outSlope: 0
        tangentMode: 0
      - time: .416666806
        value: -0
        inSlope: 0
        outSlope: 0
        tangentMode: 0
      - time: .433333486
        value: -0
        inSlope: 0
        outSlope: 0
        tangentMode: 0
      - time: .450000167
        value: -0
        inSlope: 0
        outSlope: 0
        tangentMode: 0
      - time: .466666847
        value: -0
        inSlope: 0
        outSlope: 0
        tangentMode: 0
      - time: .483333528
        value: -0
        inSlope: 0
        outSlope: 0
        tangentMode: 0
      - time: .500000179
        value: -0
        inSlope: 0
        outSlope: 0
        tangentMode: 0
      - time: .51666683
        value: -0
        inSlope: 0
        outSlope: 0
        tangentMode: 0
      - time: .53333348
        value: -0
        inSlope: 0
        outSlope: 0
        tangentMode: 0
      - time: .550000131
        value: -0
        inSlope: 0
        outSlope: 0
        tangentMode: 0
      - time: .566666782
        value: -0
        inSlope: 0
        outSlope: 0
        tangentMode: 0
      - time: .583333433
        value: -0
        inSlope: 0
        outSlope: 0
        tangentMode: 0
      - time: .600000083
        value: -0
        inSlope: 0
        outSlope: 0
        tangentMode: 0
      - time: .616666734
        value: -0
        inSlope: 0
        outSlope: 0
        tangentMode: 0
      - time: .633333385
        value: -0
        inSlope: 0
        outSlope: 0
        tangentMode: 0
      - time: .649999976
        value: -0
        inSlope: 0
        outSlope: 0
        tangentMode: 0
      m_PreInfinity: 2
      m_PostInfinity: 2
    attribute: localEulerAngles.x
    path: Head
    classID: 4
    script: {fileID: 0}
  - curve:
      serializedVersion: 2
      m_Curve:
      - time: 0
        value: 0
        inSlope: 0
        outSlope: 0
        tangentMode: 0
      - time: .0166666675
        value: 0
        inSlope: 0
        outSlope: 0
        tangentMode: 0
      - time: .0333333351
        value: 0
        inSlope: 0
        outSlope: 0
        tangentMode: 0
      - time: .0500000045
        value: 0
        inSlope: 0
        outSlope: 0
        tangentMode: 0
      - time: .0666666701
        value: 0
        inSlope: 0
        outSlope: 0
        tangentMode: 0
      - time: .0833333358
        value: 0
        inSlope: 0
        outSlope: 0
        tangentMode: 0
      - time: .100000001
        value: 0
        inSlope: 0
        outSlope: 0
        tangentMode: 0
      - time: .116666667
        value: 0
        inSlope: 0
        outSlope: 0
        tangentMode: 0
      - time: .13333334
        value: 0
        inSlope: 0
        outSlope: 0
        tangentMode: 0
      - time: .150000006
        value: 0
        inSlope: 0
        outSlope: 0
        tangentMode: 0
      - time: .166666672
        value: 0
        inSlope: 0
        outSlope: 0
        tangentMode: 0
      - time: .183333337
        value: 0
        inSlope: 0
        outSlope: 0
        tangentMode: 0
      - time: .200000003
        value: 0
        inSlope: 0
        outSlope: 0
        tangentMode: 0
      - time: .216666669
        value: 0
        inSlope: 0
        outSlope: 0
        tangentMode: 0
      - time: .233333334
        value: 0
        inSlope: 0
        outSlope: 0
        tangentMode: 0
      - time: .25
        value: 0
        inSlope: 0
        outSlope: 0
        tangentMode: 0
      - time: .266666681
        value: 0
        inSlope: 0
        outSlope: 0
        tangentMode: 0
      - time: .283333361
        value: 0
        inSlope: 0
        outSlope: 0
        tangentMode: 0
      - time: .300000042
        value: 0
        inSlope: 0
        outSlope: 0
        tangentMode: 0
      - time: .316666722
        value: 0
        inSlope: 0
        outSlope: 0
        tangentMode: 0
      - time: .333333403
        value: 0
        inSlope: 0
        outSlope: 0
        tangentMode: 0
      - time: .350000083
        value: 0
        inSlope: 0
        outSlope: 0
        tangentMode: 0
      - time: .366666764
        value: 0
        inSlope: 0
        outSlope: 0
        tangentMode: 0
      - time: .383333445
        value: 0
        inSlope: 0
        outSlope: 0
        tangentMode: 0
      - time: .400000125
        value: 0
        inSlope: 0
        outSlope: 0
        tangentMode: 0
      - time: .416666806
        value: 0
        inSlope: 0
        outSlope: 0
        tangentMode: 0
      - time: .433333486
        value: 0
        inSlope: 0
        outSlope: 0
        tangentMode: 0
      - time: .450000167
        value: 0
        inSlope: 0
        outSlope: 0
        tangentMode: 0
      - time: .466666847
        value: 0
        inSlope: 0
        outSlope: 0
        tangentMode: 0
      - time: .483333528
        value: 0
        inSlope: 0
        outSlope: 0
        tangentMode: 0
      - time: .500000179
        value: 0
        inSlope: 0
        outSlope: 0
        tangentMode: 0
      - time: .51666683
        value: 0
        inSlope: 0
        outSlope: 0
        tangentMode: 0
      - time: .53333348
        value: 0
        inSlope: 0
        outSlope: 0
        tangentMode: 0
      - time: .550000131
        value: 0
        inSlope: 0
        outSlope: 0
        tangentMode: 0
      - time: .566666782
        value: 0
        inSlope: 0
        outSlope: 0
        tangentMode: 0
      - time: .583333433
        value: 0
        inSlope: 0
        outSlope: 0
        tangentMode: 0
      - time: .600000083
        value: 0
        inSlope: 0
        outSlope: 0
        tangentMode: 0
      - time: .616666734
        value: 0
        inSlope: 0
        outSlope: 0
        tangentMode: 0
      - time: .633333385
        value: 0
        inSlope: 0
        outSlope: 0
        tangentMode: 0
      - time: .649999976
        value: 0
        inSlope: 0
        outSlope: 0
        tangentMode: 0
      m_PreInfinity: 2
      m_PostInfinity: 2
    attribute: localEulerAngles.y
    path: Head
    classID: 4
    script: {fileID: 0}
  - curve:
      serializedVersion: 2
      m_Curve:
      - time: 0
        value: .818527341
        inSlope: 25.6557999
        outSlope: 25.6557999
        tangentMode: 0
      - time: .0166666675
        value: 1.24612033
        inSlope: 27.2138424
        outSlope: 27.2138424
        tangentMode: 0
      - time: .0333333351
        value: 1.72567296
        inSlope: 30.1582851
        outSlope: 30.1582813
        tangentMode: 0
      - time: .0500000045
        value: 2.2514112
        inSlope: 32.7544022
        outSlope: 32.7544098
        tangentMode: 0
      - time: .0666666701
        value: 2.8175633
        inSlope: 35.0084076
        outSlope: 35.0084076
        tangentMode: 0
      - time: .0833333358
        value: 3.41835475
        inSlope: 36.91325
        outSlope: 36.91325
        tangentMode: 0
      - time: .100000001
        value: 4.04801273
        inSlope: 38.47258
        outSlope: 38.47258
        tangentMode: 0
      - time: .116666667
        value: 4.70076323
        inSlope: 39.6847649
        outSlope: 39.6847458
        tangentMode: 0
      - time: .13333334
        value: 5.37083387
        inSlope: 40.5506058
        outSlope: 40.5506248
        tangentMode: 0
      - time: .150000006
        value: 6.05245161
        inSlope: 41.0683556
        outSlope: 41.0683556
        tangentMode: 0
      - time: .166666672
        value: 6.73984432
        inSlope: 41.241478
        outSlope: 41.241478
        tangentMode: 0
      - time: .183333337
        value: 7.42723179
        inSlope: 41.0694733
        outSlope: 41.0694733
        tangentMode: 0
      - time: .200000003
        value: 8.10885239
        inSlope: 40.5512276
        outSlope: 40.5512276
        tangentMode: 0
      - time: .216666669
        value: 8.77892208
        inSlope: 39.684166
        outSlope: 39.684166
        tangentMode: 0
      - time: .233333334
        value: 9.43167305
        inSlope: 38.471035
        outSlope: 38.471035
        tangentMode: 0
      - time: .25
        value: 10.0613289
        inSlope: 36.9133797
        outSlope: 36.9133453
        tangentMode: 0
      - time: .266666681
        value: 10.6621208
        inSlope: 35.0085907
        outSlope: 35.0085907
        tangentMode: 0
      - time: .283333361
        value: 11.2282743
        inSlope: 32.7551956
        outSlope: 32.7551956
        tangentMode: 0
      - time: .300000042
        value: 11.7540131
        inSlope: 30.1574459
        outSlope: 30.1574459
        tangentMode: 0
      - time: .316666722
        value: 12.2335653
        inSlope: 27.2132835
        outSlope: 27.2132835
        tangentMode: 0
      - time: .333333403
        value: 12.6611605
        inSlope: 23.9232254
        outSlope: 23.9232254
        tangentMode: 0
      - time: .350000083
        value: 13.0310192
        inSlope: 20.286581
        outSlope: 20.286581
        tangentMode: 0
      - time: .366666764
        value: 13.3373737
        inSlope: 16.3033543
        outSlope: 16.3033543
        tangentMode: 0
      - time: .383333445
        value: 13.5744486
        inSlope: 11.9721699
        outSlope: 11.9721699
        tangentMode: 0
      - time: .400000125
        value: 13.7364683
        inSlope: 7.29714727
        outSlope: 7.29714727
        tangentMode: 0
      - time: .416666806
        value: 13.8176632
        inSlope: 2.27313805
        outSlope: 2.27313805
        tangentMode: 0
      - time: .433333486
        value: 13.8122597
        inSlope: -3.09608197
        outSlope: -3.09608197
        tangentMode: 0
      - time: .450000167
        value: 13.7144842
        inSlope: -8.81222916
        outSlope: -8.81222916
        tangentMode: 0
      - time: .466666847
        value: 13.5185595
        inSlope: -14.8735876
        outSlope: -14.8735876
        tangentMode: 0
      - time: .483333528
        value: 13.2187185
        inSlope: -21.2803288
        outSlope: -21.2803669
        tangentMode: 0
      - time: .500000179
        value: 12.8091879
        inSlope: -31.7283745
        outSlope: -31.7283745
        tangentMode: 0
      - time: .51666683
        value: 12.1611271
        inSlope: -48.5036545
        outSlope: -48.5036545
        tangentMode: 0
      - time: .53333348
        value: 11.1923323
        inSlope: -65.8237915
        outSlope: -65.8237915
        tangentMode: 0
      - time: .550000131
        value: 9.96694756
        inSlope: -79.2935562
        outSlope: -79.2935562
        tangentMode: 0
      - time: .566666782
        value: 8.54911995
        inSlope: -88.9155273
        outSlope: -88.9155273
        tangentMode: 0
      - time: .583333433
        value: 7.00300169
        inSlope: -94.6877365
        outSlope: -94.6877365
        tangentMode: 0
      - time: .600000083
        value: 5.3927331
        inSlope: -96.6115417
        outSlope: -96.6115417
        tangentMode: 0
      - time: .616666734
        value: 3.78246498
        inSlope: -94.6874771
        outSlope: -94.6874771
        tangentMode: 0
      - time: .633333385
        value: 2.23634648
        inSlope: -88.915741
        outSlope: -88.9160614
        tangentMode: 0
      - time: .649999976
        value: .818527341
        inSlope: -85.0647964
        outSlope: -85.0647964
        tangentMode: 0
      m_PreInfinity: 2
      m_PostInfinity: 2
    attribute: localEulerAngles.z
    path: Head
    classID: 4
    script: {fileID: 0}
  - curve:
      serializedVersion: 2
      m_Curve:
      - time: 0
        value: -0
        inSlope: 0
        outSlope: 0
        tangentMode: 0
      - time: .0166666675
        value: -0
        inSlope: 0
        outSlope: 0
        tangentMode: 0
      - time: .0333333351
        value: -0
        inSlope: 0
        outSlope: 0
        tangentMode: 0
      - time: .0500000045
        value: -0
        inSlope: 0
        outSlope: 0
        tangentMode: 0
      - time: .0666666701
        value: -0
        inSlope: 0
        outSlope: 0
        tangentMode: 0
      - time: .0833333358
        value: -0
        inSlope: 0
        outSlope: 0
        tangentMode: 0
      - time: .100000001
        value: -0
        inSlope: 0
        outSlope: 0
        tangentMode: 0
      - time: .116666667
        value: -0
        inSlope: 0
        outSlope: 0
        tangentMode: 0
      - time: .13333334
        value: -0
        inSlope: 0
        outSlope: 0
        tangentMode: 0
      - time: .150000006
        value: -0
        inSlope: 0
        outSlope: 0
        tangentMode: 0
      - time: .166666672
        value: -0
        inSlope: 0
        outSlope: 0
        tangentMode: 0
      - time: .183333337
        value: -0
        inSlope: 0
        outSlope: 0
        tangentMode: 0
      - time: .200000003
        value: -0
        inSlope: 0
        outSlope: 0
        tangentMode: 0
      - time: .216666669
        value: -0
        inSlope: 0
        outSlope: 0
        tangentMode: 0
      - time: .233333334
        value: -0
        inSlope: 0
        outSlope: 0
        tangentMode: 0
      - time: .25
        value: -0
        inSlope: 0
        outSlope: 0
        tangentMode: 0
      - time: .266666681
        value: -0
        inSlope: 0
        outSlope: 0
        tangentMode: 0
      - time: .283333361
        value: -0
        inSlope: 0
        outSlope: 0
        tangentMode: 0
      - time: .300000042
        value: -0
        inSlope: 0
        outSlope: 0
        tangentMode: 0
      - time: .316666722
        value: -0
        inSlope: 0
        outSlope: 0
        tangentMode: 0
      - time: .333333403
        value: -0
        inSlope: 0
        outSlope: 0
        tangentMode: 0
      - time: .350000083
        value: -0
        inSlope: 0
        outSlope: 0
        tangentMode: 0
      - time: .366666764
        value: -0
        inSlope: 0
        outSlope: 0
        tangentMode: 0
      - time: .383333445
        value: -0
        inSlope: 0
        outSlope: 0
        tangentMode: 0
      - time: .400000125
        value: -0
        inSlope: 0
        outSlope: 0
        tangentMode: 0
      - time: .416666806
        value: -0
        inSlope: 0
        outSlope: 0
        tangentMode: 0
      - time: .433333486
        value: -0
        inSlope: 0
        outSlope: 0
        tangentMode: 0
      - time: .450000167
        value: -0
        inSlope: 0
        outSlope: 0
        tangentMode: 0
      - time: .466666847
        value: -0
        inSlope: 0
        outSlope: 0
        tangentMode: 0
      - time: .483333528
        value: -0
        inSlope: 0
        outSlope: 0
        tangentMode: 0
      - time: .500000179
        value: -0
        inSlope: 0
        outSlope: 0
        tangentMode: 0
      - time: .51666683
        value: -0
        inSlope: 0
        outSlope: 0
        tangentMode: 0
      - time: .53333348
        value: -0
        inSlope: 0
        outSlope: 0
        tangentMode: 0
      - time: .550000131
        value: -0
        inSlope: 0
        outSlope: 0
        tangentMode: 0
      - time: .566666782
        value: -0
        inSlope: 0
        outSlope: 0
        tangentMode: 0
      - time: .583333433
        value: -0
        inSlope: 0
        outSlope: 0
        tangentMode: 0
      - time: .600000083
        value: -0
        inSlope: 0
        outSlope: 0
        tangentMode: 0
      - time: .616666734
        value: -0
        inSlope: 0
        outSlope: 0
        tangentMode: 0
      - time: .633333385
        value: -0
        inSlope: 0
        outSlope: 0
        tangentMode: 0
      - time: .649999976
        value: -0
        inSlope: 0
        outSlope: 0
        tangentMode: 0
      m_PreInfinity: 2
      m_PostInfinity: 2
    attribute: localEulerAngles.x
    path: Arm
    classID: 4
    script: {fileID: 0}
  - curve:
      serializedVersion: 2
      m_Curve:
      - time: 0
        value: 0
        inSlope: 0
        outSlope: 0
        tangentMode: 0
      - time: .0166666675
        value: 0
        inSlope: 0
        outSlope: 0
        tangentMode: 0
      - time: .0333333351
        value: 0
        inSlope: 0
        outSlope: 0
        tangentMode: 0
      - time: .0500000045
        value: 0
        inSlope: 0
        outSlope: 0
        tangentMode: 0
      - time: .0666666701
        value: 0
        inSlope: 0
        outSlope: 0
        tangentMode: 0
      - time: .0833333358
        value: -0
        inSlope: 0
        outSlope: 0
        tangentMode: 0
      - time: .100000001
        value: -0
        inSlope: 0
        outSlope: 0
        tangentMode: 0
      - time: .116666667
        value: -0
        inSlope: 0
        outSlope: 0
        tangentMode: 0
      - time: .13333334
        value: -0
        inSlope: 0
        outSlope: 0
        tangentMode: 0
      - time: .150000006
        value: -0
        inSlope: 0
        outSlope: 0
        tangentMode: 0
      - time: .166666672
        value: -0
        inSlope: 0
        outSlope: 0
        tangentMode: 0
      - time: .183333337
        value: -0
        inSlope: 0
        outSlope: 0
        tangentMode: 0
      - time: .200000003
        value: -0
        inSlope: 0
        outSlope: 0
        tangentMode: 0
      - time: .216666669
        value: -0
        inSlope: 0
        outSlope: 0
        tangentMode: 0
      - time: .233333334
        value: -0
        inSlope: 0
        outSlope: 0
        tangentMode: 0
      - time: .25
        value: -0
        inSlope: 0
        outSlope: 0
        tangentMode: 0
      - time: .266666681
        value: -0
        inSlope: 0
        outSlope: 0
        tangentMode: 0
      - time: .283333361
        value: -0
        inSlope: 0
        outSlope: 0
        tangentMode: 0
      - time: .300000042
        value: -0
        inSlope: 0
        outSlope: 0
        tangentMode: 0
      - time: .316666722
        value: -0
        inSlope: 0
        outSlope: 0
        tangentMode: 0
      - time: .333333403
        value: -0
        inSlope: 0
        outSlope: 0
        tangentMode: 0
      - time: .350000083
        value: -0
        inSlope: 0
        outSlope: 0
        tangentMode: 0
      - time: .366666764
        value: -0
        inSlope: 0
        outSlope: 0
        tangentMode: 0
      - time: .383333445
        value: -0
        inSlope: 0
        outSlope: 0
        tangentMode: 0
      - time: .400000125
        value: -0
        inSlope: 0
        outSlope: 0
        tangentMode: 0
      - time: .416666806
        value: -0
        inSlope: 0
        outSlope: 0
        tangentMode: 0
      - time: .433333486
        value: -0
        inSlope: 0
        outSlope: 0
        tangentMode: 0
      - time: .450000167
        value: -0
        inSlope: 0
        outSlope: 0
        tangentMode: 0
      - time: .466666847
        value: -0
        inSlope: 0
        outSlope: 0
        tangentMode: 0
      - time: .483333528
        value: -0
        inSlope: 0
        outSlope: 0
        tangentMode: 0
      - time: .500000179
        value: -0
        inSlope: 0
        outSlope: 0
        tangentMode: 0
      - time: .51666683
        value: -0
        inSlope: 0
        outSlope: 0
        tangentMode: 0
      - time: .53333348
        value: 0
        inSlope: 0
        outSlope: 0
        tangentMode: 0
      - time: .550000131
        value: 0
        inSlope: 0
        outSlope: 0
        tangentMode: 0
      - time: .566666782
        value: 0
        inSlope: 0
        outSlope: 0
        tangentMode: 0
      - time: .583333433
        value: 0
        inSlope: 0
        outSlope: 0
        tangentMode: 0
      - time: .600000083
        value: 0
        inSlope: 0
        outSlope: 0
        tangentMode: 0
      - time: .616666734
        value: 0
        inSlope: 0
        outSlope: 0
        tangentMode: 0
      - time: .633333385
        value: 0
        inSlope: 0
        outSlope: 0
        tangentMode: 0
      - time: .649999976
        value: 0
        inSlope: 0
        outSlope: 0
        tangentMode: 0
      m_PreInfinity: 2
      m_PostInfinity: 2
    attribute: localEulerAngles.y
    path: Arm
    classID: 4
    script: {fileID: 0}
  - curve:
      serializedVersion: 2
      m_Curve:
      - time: 0
        value: 305.839447
        inSlope: 591.35553
        outSlope: 591.35553
        tangentMode: 0
      - time: .0166666675
        value: 315.69809
        inSlope: 614.981628
        outSlope: 614.981628
        tangentMode: 0
      - time: .0333333351
        value: 326.370056
        inSlope: 657.443787
        outSlope: 657.443726
        tangentMode: 0
      - time: .0500000045
        value: 337.652008
        inSlope: 687.749512
        outSlope: 687.749695
        tangentMode: 0
      - time: .0666666701
        value: 349.340546
        inSlope: 705.910095
        outSlope: 705.910095
        tangentMode: 0
      - time: .0833333358
        value: 1.23247647
        inSlope: 711.953674
        outSlope: 711.953674
        tangentMode: 0
      - time: .100000001
        value: 13.1243839
        inSlope: 705.869934
        outSlope: 705.869934
        tangentMode: 0
      - time: .116666667
        value: 24.812994
        inSlope: 687.66626
        outSlope: 687.663208
        tangentMode: 0
      - time: .13333334
        value: 36.0949097
        inSlope: 657.328247
        outSlope: 657.328552
        tangentMode: 0
      - time: .150000006
        value: 46.7668877
        inSlope: 614.842346
        outSlope: 614.842346
        tangentMode: 0
      - time: .166666672
        value: 56.6255264
        inSlope: 560.191528
        outSlope: 560.191528
        tangentMode: 0
      - time: .183333337
        value: 65.4675598
        inSlope: 493.335602
        outSlope: 493.335602
        tangentMode: 0
      - time: .200000003
        value: 73.0896454
        inSlope: 414.258759
        outSlope: 414.258759
        tangentMode: 0
      - time: .216666669
        value: 79.2884598
        inSlope: 322.936279
        outSlope: 322.936279
        tangentMode: 0
      - time: .233333334
        value: 83.860672
        inSlope: 219.361282
        outSlope: 219.361282
        tangentMode: 0
      - time: .25
        value: 86.6029587
        inSlope: 116.374062
        outSlope: 116.373955
        tangentMode: 0
      - time: .266666681
        value: 87.7403488
        inSlope: 32.5043983
        outSlope: 32.5043983
        tangentMode: 0
      - time: .283333361
        value: 87.6863861
        inSlope: -36.5926819
        outSlope: -36.5926819
        tangentMode: 0
      - time: .300000042
        value: 86.5204391
        inSlope: -100.924446
        outSlope: -100.924446
        tangentMode: 0
      - time: .316666722
        value: 84.3220291
        inSlope: -160.484024
        outSlope: -160.484024
        tangentMode: 0
      - time: .333333403
        value: 81.1705475
        inSlope: -215.268677
        outSlope: -215.268677
        tangentMode: 0
      - time: .350000083
        value: 77.1453629
        inSlope: -265.266052
        outSlope: -265.266052
        tangentMode: 0
      - time: .366666764
        value: 72.3259811
        inSlope: -310.493988
        outSlope: -310.493988
        tangentMode: 0
      - time: .383333445
        value: 66.7917099
        inSlope: -350.940094
        outSlope: -350.940094
        tangentMode: 0
      - time: .400000125
        value: 60.6221466
        inSlope: -386.622284
        outSlope: -386.622284
        tangentMode: 0
      - time: .416666806
        value: 53.8965645
        inSlope: -417.53299
        outSlope: -417.53299
        tangentMode: 0
      - time: .433333486
        value: 46.6944313
        inSlope: -443.68042
        outSlope: -443.68042
        tangentMode: 0
      - time: .450000167
        value: 39.095192
        inSlope: -465.068726
        outSlope: -465.068726
        tangentMode: 0
      - time: .466666847
        value: 31.1782379
        inSlope: -481.69516
        outSlope: -481.69516
        tangentMode: 0
      - time: .483333528
        value: 23.0230198
        inSlope: -493.56485
        outSlope: -493.565735
        tangentMode: 0
      - time: .500000179
        value: 14.7089853
        inSlope: -500.686066
        outSlope: -500.686066
        tangentMode: 0
      - time: .51666683
        value: 6.3155303
        inSlope: -503.0578
        outSlope: -503.0578
        tangentMode: 0
      - time: .53333348
        value: 357.922058
        inSlope: -500.68042
        outSlope: -500.68042
        tangentMode: 0
      - time: .550000131
        value: 349.608002
        inSlope: -493.544769
        outSlope: -493.544769
        tangentMode: 0
      - time: .566666782
        value: 341.452789
        inSlope: -481.668549
        outSlope: -481.668549
        tangentMode: 0
      - time: .583333433
        value: 333.535889
        inSlope: -465.035248
        outSlope: -465.035248
        tangentMode: 0
      - time: .600000083
        value: 325.936676
        inSlope: -443.644836
        outSlope: -443.644836
        tangentMode: 0
      - time: .616666734
        value: 318.734589
        inSlope: -417.497345
        outSlope: -417.497345
        tangentMode: 0
      - time: .633333385
        value: 312.008972
        inSlope: -386.581787
        outSlope: -386.58316
        tangentMode: 0
      - time: .649999976
        value: 305.839447
        inSlope: -369.77951
        outSlope: -369.77951
        tangentMode: 0
      m_PreInfinity: 2
      m_PostInfinity: 2
    attribute: localEulerAngles.z
    path: Arm
    classID: 4
    script: {fileID: 0}
  m_HasGenericRootTransform: 0
  m_HasMotionFloatCurves: 0
  m_GenerateMotionCurves: 0
  m_Events: []
